[
  {
    "name": "twid",
    "value": "u%3D1138853452107436037",
    "domain": ".twitter.com",
    "path": "/",
    "expires": 1735822840.095719,
    "size": 27,
    "httpOnly": false,
    "secure": true,
    "session": false
  },
  {
    "name": "lang",
    "value": "en",
    "domain": "twitter.com",
    "path": "/",
    "expires": -1,
    "size": 6,
    "httpOnly": false,
    "secure": false,
    "session": true
  },
  {
    "name": "csrf_same_site_set",
    "value": "1",
    "domain": ".twitter.com",
    "path": "/",
    "expires": 1609592436.075702,
    "size": 19,
    "httpOnly": true,
    "secure": true,
    "session": false
  },
  {
    "name": "_twitter_sess",
    "value": "BAh7CiIKZmxhc2hJQzonQWN0aW9uQ29udHJvbGxlcjo6Rmxhc2g6OkZsYXNo%250ASGFzaHsABjoKQHVzZWR7ADoPY3JlYXRlZF9hdGwrCAqNpHBvAToMY3NyZl9p%250AZCIlZmRkODIwM2Y4M2QxNjY0YTA3YzExYjYzZGZiMDYxYmI6B2lkIiU1NTE0%250AMjMwNjNiMDVmMTBhZDIxOTRmZWRmMmRmNTcwZjoJdXNlcmwrCQVQF0guBc4P--a35c17d1654c9eb90263220dc590972aea319410",
    "domain": ".twitter.com",
    "path": "/",
    "expires": -1,
    "size": 310,
    "httpOnly": true,
    "secure": true,
    "session": true
  },
  {
    "name": "ads_prefs",
    "value": "\"HBISAAA=\"",
    "domain": ".twitter.com",
    "path": "/",
    "expires": 1735822835.913216,
    "size": 19,
    "httpOnly": false,
    "secure": false,
    "session": false
  },
  {
    "name": "remember_checked_on",
    "value": "0",
    "domain": ".twitter.com",
    "path": "/",
    "expires": 1735822835.913356,
    "size": 20,
    "httpOnly": false,
    "secure": false,
    "session": false
  },
  {
    "name": "kdt",
    "value": "j3PSH3UBv6h4vpbkW3EIR50jmLeOageCmD6gRgdd",
    "domain": ".twitter.com",
    "path": "/",
    "expires": 1625403635.913283,
    "size": 43,
    "httpOnly": true,
    "secure": true,
    "session": false
  },
  {
    "name": "personalization_id",
    "value": "\"v1_69qo6S/RurEGOQWf3EEbDg==\"",
    "domain": ".twitter.com",
    "path": "/",
    "expires": 1641214830.414103,
    "size": 47,
    "httpOnly": false,
    "secure": false,
    "session": false
  },
  {
    "name": "dnt",
    "value": "1",
    "domain": ".twitter.com",
    "path": "/",
    "expires": 1735822836.075322,
    "size": 4,
    "httpOnly": false,
    "secure": false,
    "session": false
  },
  {
    "name": "rweb_optin",
    "value": "side_no_out",
    "domain": ".twitter.com",
    "path": "/",
    "expires": 1609678836.075858,
    "size": 21,
    "httpOnly": false,
    "secure": true,
    "session": false
  },
  {
    "name": "_gat",
    "value": "1",
    "domain": ".twitter.com",
    "path": "/",
    "expires": 1578142893,
    "size": 5,
    "httpOnly": false,
    "secure": false,
    "session": false
  },
  {
    "name": "_gid",
    "value": "GA1.2.2070571823.1578142833",
    "domain": ".twitter.com",
    "path": "/",
    "expires": 1578229243,
    "size": 31,
    "httpOnly": false,
    "secure": false,
    "session": false
  },
  {
    "name": "csrf_same_site",
    "value": "1",
    "domain": ".twitter.com",
    "path": "/",
    "expires": 1609678836.07592,
    "size": 15,
    "httpOnly": true,
    "secure": true,
    "session": false,
    "sameSite": "Lax"
  },
  {
    "name": "auth_token",
    "value": "892544d9427849208e8c816e09c552e671a9a75a",
    "domain": ".twitter.com",
    "path": "/",
    "expires": -1,
    "size": 50,
    "httpOnly": true,
    "secure": true,
    "session": true
  },
  {
    "name": "ct0",
    "value": "27dac0530800dbadc59913f78cee8c2b",
    "domain": ".twitter.com",
    "path": "/",
    "expires": 1578164430.414161,
    "size": 35,
    "httpOnly": false,
    "secure": true,
    "session": false
  },
  {
    "name": "guest_id",
    "value": "v1%3A157814282983195823",
    "domain": ".twitter.com",
    "path": "/",
    "expires": 1641214830.414134,
    "size": 31,
    "httpOnly": false,
    "secure": false,
    "session": false
  },
  {
    "name": "_ga",
    "value": "GA1.2.1525509504.1578142833",
    "domain": ".twitter.com",
    "path": "/",
    "expires": 1641214843,
    "size": 30,
    "httpOnly": false,
    "secure": false,
    "session": false
  }
]
